{
  "project_info": {
    "project_number": "870360352795",
    "project_id": "zpoproject-bcbf6",
    "storage_bucket": "zpoproject-bcbf6.appspot.com"
  },
  "client": [
    {
      "client_info": {
        "mobilesdk_app_id": "1:870360352795:android:6c402d03f825873728d0be",
        "android_client_info": {
          "package_name": "edu.ib.zpo2project"
        }
      },
      "oauth_client": [
        {
          "client_id": "870360352795-u9bcn31e83gj7j1fokjla6hi2a2vilp5.apps.googleusercontent.com",
          "client_type": 3
        }
      ],
      "api_key": [
        {
          "current_key": "AIzaSyALba7T02d-bZ3vxt8usK2VUO3JJQ5tqts"
        }
      ],
      "services": {
        "appinvite_service": {
          "other_platform_oauth_client": [
            {
              "client_id": "870360352795-u9bcn31e83gj7j1fokjla6hi2a2vilp5.apps.googleusercontent.com",
              "client_type": 3
            }
          ]
        }
      }
    }
  ],
  "configuration_version": "1"
}